ISO-10303-21;
HEADER;
/* Generated by software containing ST-Developer
 * from STEP Tools, Inc. (www.steptools.com) 
 */
/* OPTION: using custom renumber hook */

FILE_DESCRIPTION(
/* description */ ('STEP AP242',
'CAx-IF Rec.Pracs.---Representation and Presentation of Product Manufa
cturing Information (PMI)---4.0---2014-10-13',
'CAx-IF Rec.Pracs.---3D Tessellated Geometry---0.4---2014-09-14','2;1'),

/* implementation_level */ '2;1');

FILE_NAME(
/* name */ '649fad66fa1fa462ca075bb1',
/* time_stamp */ '2023-07-01T04:36:54Z',
/* author */ (''),
/* organization */ (''),
/* preprocessor_version */ 'ST-DEVELOPER v19.4',
/* originating_system */ '  ',
/* authorisation */ '  ');

FILE_SCHEMA (('AP242_MANAGED_MODEL_BASED_3D_ENGINEERING_MIM_LF { 1 0 10303 442 1 1 4 }'));
ENDSEC;

DATA;
#10=SHAPE_REPRESENTATION_RELATIONSHIP('','',#777,#11);
#11=ADVANCED_BREP_SHAPE_REPRESENTATION('',(#775),#1281);
#12=ELLIPSE('',#830,0.00707106781186547,0.005);
#13=ELLIPSE('',#832,0.00707106781186547,0.005);
#14=B_SPLINE_CURVE_WITH_KNOTS('',3,(#1250,#1251,#1252,#1253,#1254,#1255,
#1256),.UNSPECIFIED.,.F.,.F.,(4,1,1,1,4),(4.18956179114129E-19,0.00244479254437356,
0.00488958508874712,0.00733437763312068,0.00977917017749423),
 .UNSPECIFIED.);
#15=B_SPLINE_CURVE_WITH_KNOTS('',3,(#1268,#1269,#1270,#1271,#1272,#1273,
#1274),.UNSPECIFIED.,.F.,.F.,(4,1,1,1,4),(4.18956179114129E-19,0.00244479254437356,
0.00488958508874712,0.00733437763312068,0.00977917017749424),
 .UNSPECIFIED.);
#16=TOROIDAL_SURFACE('',#827,0.0328,0.005);
#17=TOROIDAL_SURFACE('',#834,0.0328,0.005);
#18=CYLINDRICAL_SURFACE('',#797,0.0278);
#19=CYLINDRICAL_SURFACE('',#799,0.0278);
#20=CYLINDRICAL_SURFACE('',#801,0.0268);
#21=CYLINDRICAL_SURFACE('',#803,0.0268);
#22=CYLINDRICAL_SURFACE('',#817,0.0302);
#23=CYLINDRICAL_SURFACE('',#819,0.0302);
#24=CYLINDRICAL_SURFACE('',#824,0.005);
#25=CYLINDRICAL_SURFACE('',#829,0.005);
#26=CYLINDRICAL_SURFACE('',#831,0.005);
#27=CYLINDRICAL_SURFACE('',#833,0.005);
#28=CIRCLE('',#780,0.0278);
#29=CIRCLE('',#781,0.0268);
#30=CIRCLE('',#788,0.0268);
#31=CIRCLE('',#789,0.0278);
#32=CIRCLE('',#790,0.0278);
#33=CIRCLE('',#791,0.0268);
#34=CIRCLE('',#792,0.0302);
#35=CIRCLE('',#793,0.0302);
#36=CIRCLE('',#795,0.0268);
#37=CIRCLE('',#796,0.0278);
#38=CIRCLE('',#818,0.0302);
#39=CIRCLE('',#820,0.0302);
#40=CIRCLE('',#822,0.0378);
#41=CIRCLE('',#823,0.0378);
#42=CIRCLE('',#825,0.005);
#43=CIRCLE('',#826,0.005);
#44=CIRCLE('',#828,0.0328);
#45=CIRCLE('',#835,0.0328);
#46=ORIENTED_EDGE('',*,*,#262,.T.);
#47=ORIENTED_EDGE('',*,*,#263,.T.);
#48=ORIENTED_EDGE('',*,*,#264,.F.);
#49=ORIENTED_EDGE('',*,*,#265,.T.);
#50=ORIENTED_EDGE('',*,*,#266,.F.);
#51=ORIENTED_EDGE('',*,*,#267,.F.);
#52=ORIENTED_EDGE('',*,*,#268,.T.);
#53=ORIENTED_EDGE('',*,*,#269,.F.);
#54=ORIENTED_EDGE('',*,*,#270,.F.);
#55=ORIENTED_EDGE('',*,*,#262,.F.);
#56=ORIENTED_EDGE('',*,*,#271,.T.);
#57=ORIENTED_EDGE('',*,*,#272,.T.);
#58=ORIENTED_EDGE('',*,*,#273,.T.);
#59=ORIENTED_EDGE('',*,*,#274,.T.);
#60=ORIENTED_EDGE('',*,*,#275,.T.);
#61=ORIENTED_EDGE('',*,*,#276,.T.);
#62=ORIENTED_EDGE('',*,*,#277,.T.);
#63=ORIENTED_EDGE('',*,*,#278,.F.);
#64=ORIENTED_EDGE('',*,*,#279,.F.);
#65=ORIENTED_EDGE('',*,*,#280,.T.);
#66=ORIENTED_EDGE('',*,*,#281,.F.);
#67=ORIENTED_EDGE('',*,*,#282,.F.);
#68=ORIENTED_EDGE('',*,*,#283,.T.);
#69=ORIENTED_EDGE('',*,*,#266,.T.);
#70=ORIENTED_EDGE('',*,*,#284,.F.);
#71=ORIENTED_EDGE('',*,*,#285,.F.);
#72=ORIENTED_EDGE('',*,*,#286,.F.);
#73=ORIENTED_EDGE('',*,*,#287,.T.);
#74=ORIENTED_EDGE('',*,*,#288,.T.);
#75=ORIENTED_EDGE('',*,*,#289,.F.);
#76=ORIENTED_EDGE('',*,*,#290,.T.);
#77=ORIENTED_EDGE('',*,*,#291,.T.);
#78=ORIENTED_EDGE('',*,*,#292,.F.);
#79=ORIENTED_EDGE('',*,*,#293,.F.);
#80=ORIENTED_EDGE('',*,*,#282,.T.);
#81=ORIENTED_EDGE('',*,*,#294,.T.);
#82=ORIENTED_EDGE('',*,*,#295,.F.);
#83=ORIENTED_EDGE('',*,*,#296,.F.);
#84=ORIENTED_EDGE('',*,*,#297,.T.);
#85=ORIENTED_EDGE('',*,*,#298,.T.);
#86=ORIENTED_EDGE('',*,*,#299,.F.);
#87=ORIENTED_EDGE('',*,*,#300,.T.);
#88=ORIENTED_EDGE('',*,*,#301,.T.);
#89=ORIENTED_EDGE('',*,*,#302,.F.);
#90=ORIENTED_EDGE('',*,*,#298,.F.);
#91=ORIENTED_EDGE('',*,*,#303,.T.);
#92=ORIENTED_EDGE('',*,*,#304,.F.);
#93=ORIENTED_EDGE('',*,*,#305,.T.);
#94=ORIENTED_EDGE('',*,*,#273,.F.);
#95=ORIENTED_EDGE('',*,*,#306,.T.);
#96=ORIENTED_EDGE('',*,*,#278,.T.);
#97=ORIENTED_EDGE('',*,*,#307,.F.);
#98=ORIENTED_EDGE('',*,*,#308,.F.);
#99=ORIENTED_EDGE('',*,*,#309,.F.);
#100=ORIENTED_EDGE('',*,*,#272,.F.);
#101=ORIENTED_EDGE('',*,*,#310,.T.);
#102=ORIENTED_EDGE('',*,*,#311,.F.);
#103=ORIENTED_EDGE('',*,*,#312,.F.);
#104=ORIENTED_EDGE('',*,*,#313,.T.);
#105=ORIENTED_EDGE('',*,*,#314,.T.);
#106=ORIENTED_EDGE('',*,*,#315,.F.);
#107=ORIENTED_EDGE('',*,*,#316,.T.);
#108=ORIENTED_EDGE('',*,*,#317,.F.);
#109=ORIENTED_EDGE('',*,*,#296,.T.);
#110=ORIENTED_EDGE('',*,*,#318,.T.);
#111=ORIENTED_EDGE('',*,*,#280,.F.);
#112=ORIENTED_EDGE('',*,*,#319,.T.);
#113=ORIENTED_EDGE('',*,*,#275,.F.);
#114=ORIENTED_EDGE('',*,*,#279,.T.);
#115=ORIENTED_EDGE('',*,*,#306,.F.);
#116=ORIENTED_EDGE('',*,*,#276,.F.);
#117=ORIENTED_EDGE('',*,*,#319,.F.);
#118=ORIENTED_EDGE('',*,*,#320,.F.);
#119=ORIENTED_EDGE('',*,*,#308,.T.);
#120=ORIENTED_EDGE('',*,*,#321,.F.);
#121=ORIENTED_EDGE('',*,*,#264,.T.);
#122=ORIENTED_EDGE('',*,*,#321,.T.);
#123=ORIENTED_EDGE('',*,*,#307,.T.);
#124=ORIENTED_EDGE('',*,*,#277,.F.);
#125=ORIENTED_EDGE('',*,*,#265,.F.);
#126=ORIENTED_EDGE('',*,*,#268,.F.);
#127=ORIENTED_EDGE('',*,*,#322,.T.);
#128=ORIENTED_EDGE('',*,*,#299,.T.);
#129=ORIENTED_EDGE('',*,*,#323,.F.);
#130=ORIENTED_EDGE('',*,*,#303,.F.);
#131=ORIENTED_EDGE('',*,*,#297,.F.);
#132=ORIENTED_EDGE('',*,*,#317,.T.);
#133=ORIENTED_EDGE('',*,*,#324,.T.);
#134=ORIENTED_EDGE('',*,*,#316,.F.);
#135=ORIENTED_EDGE('',*,*,#325,.T.);
#136=ORIENTED_EDGE('',*,*,#304,.T.);
#137=ORIENTED_EDGE('',*,*,#324,.F.);
#138=ORIENTED_EDGE('',*,*,#310,.F.);
#139=ORIENTED_EDGE('',*,*,#271,.F.);
#140=ORIENTED_EDGE('',*,*,#269,.T.);
#141=ORIENTED_EDGE('',*,*,#323,.T.);
#142=ORIENTED_EDGE('',*,*,#322,.F.);
#143=ORIENTED_EDGE('',*,*,#267,.T.);
#144=ORIENTED_EDGE('',*,*,#283,.F.);
#145=ORIENTED_EDGE('',*,*,#293,.T.);
#146=ORIENTED_EDGE('',*,*,#326,.T.);
#147=ORIENTED_EDGE('',*,*,#300,.F.);
#148=ORIENTED_EDGE('',*,*,#291,.F.);
#149=ORIENTED_EDGE('',*,*,#327,.T.);
#150=ORIENTED_EDGE('',*,*,#328,.T.);
#151=ORIENTED_EDGE('',*,*,#329,.F.);
#152=ORIENTED_EDGE('',*,*,#294,.F.);
#153=ORIENTED_EDGE('',*,*,#281,.T.);
#154=ORIENTED_EDGE('',*,*,#318,.F.);
#155=ORIENTED_EDGE('',*,*,#295,.T.);
#156=ORIENTED_EDGE('',*,*,#302,.T.);
#157=ORIENTED_EDGE('',*,*,#330,.F.);
#158=ORIENTED_EDGE('',*,*,#301,.F.);
#159=ORIENTED_EDGE('',*,*,#326,.F.);
#160=ORIENTED_EDGE('',*,*,#292,.T.);
#161=ORIENTED_EDGE('',*,*,#330,.T.);
#162=ORIENTED_EDGE('',*,*,#331,.T.);
#163=ORIENTED_EDGE('',*,*,#332,.F.);
#164=ORIENTED_EDGE('',*,*,#333,.F.);
#165=ORIENTED_EDGE('',*,*,#334,.F.);
#166=ORIENTED_EDGE('',*,*,#333,.T.);
#167=ORIENTED_EDGE('',*,*,#335,.F.);
#168=ORIENTED_EDGE('',*,*,#286,.T.);
#169=ORIENTED_EDGE('',*,*,#336,.T.);
#170=ORIENTED_EDGE('',*,*,#332,.T.);
#171=ORIENTED_EDGE('',*,*,#337,.F.);
#172=ORIENTED_EDGE('',*,*,#287,.F.);
#173=ORIENTED_EDGE('',*,*,#335,.T.);
#174=ORIENTED_EDGE('',*,*,#338,.F.);
#175=ORIENTED_EDGE('',*,*,#289,.T.);
#176=ORIENTED_EDGE('',*,*,#339,.T.);
#177=ORIENTED_EDGE('',*,*,#334,.T.);
#178=ORIENTED_EDGE('',*,*,#336,.F.);
#179=ORIENTED_EDGE('',*,*,#285,.T.);
#180=ORIENTED_EDGE('',*,*,#340,.T.);
#181=ORIENTED_EDGE('',*,*,#341,.F.);
#182=ORIENTED_EDGE('',*,*,#339,.F.);
#183=ORIENTED_EDGE('',*,*,#288,.F.);
#184=ORIENTED_EDGE('',*,*,#337,.T.);
#185=ORIENTED_EDGE('',*,*,#331,.F.);
#186=ORIENTED_EDGE('',*,*,#338,.T.);
#187=ORIENTED_EDGE('',*,*,#342,.T.);
#188=ORIENTED_EDGE('',*,*,#327,.F.);
#189=ORIENTED_EDGE('',*,*,#290,.F.);
#190=ORIENTED_EDGE('',*,*,#284,.T.);
#191=ORIENTED_EDGE('',*,*,#329,.T.);
#192=ORIENTED_EDGE('',*,*,#343,.F.);
#193=ORIENTED_EDGE('',*,*,#340,.F.);
#194=ORIENTED_EDGE('',*,*,#341,.T.);
#195=ORIENTED_EDGE('',*,*,#343,.T.);
#196=ORIENTED_EDGE('',*,*,#328,.F.);
#197=ORIENTED_EDGE('',*,*,#342,.F.);
#198=ORIENTED_EDGE('',*,*,#344,.T.);
#199=ORIENTED_EDGE('',*,*,#313,.F.);
#200=ORIENTED_EDGE('',*,*,#345,.F.);
#201=ORIENTED_EDGE('',*,*,#346,.F.);
#202=ORIENTED_EDGE('',*,*,#347,.T.);
#203=ORIENTED_EDGE('',*,*,#348,.T.);
#204=ORIENTED_EDGE('',*,*,#311,.T.);
#205=ORIENTED_EDGE('',*,*,#349,.F.);
#206=ORIENTED_EDGE('',*,*,#350,.T.);
#207=ORIENTED_EDGE('',*,*,#345,.T.);
#208=ORIENTED_EDGE('',*,*,#312,.T.);
#209=ORIENTED_EDGE('',*,*,#348,.F.);
#210=ORIENTED_EDGE('',*,*,#349,.T.);
#211=ORIENTED_EDGE('',*,*,#314,.F.);
#212=ORIENTED_EDGE('',*,*,#344,.F.);
#213=ORIENTED_EDGE('',*,*,#351,.F.);
#214=ORIENTED_EDGE('',*,*,#352,.F.);
#215=ORIENTED_EDGE('',*,*,#353,.T.);
#216=ORIENTED_EDGE('',*,*,#354,.F.);
#217=ORIENTED_EDGE('',*,*,#355,.F.);
#218=ORIENTED_EDGE('',*,*,#356,.F.);
#219=ORIENTED_EDGE('',*,*,#357,.T.);
#220=ORIENTED_EDGE('',*,*,#358,.T.);
#221=ORIENTED_EDGE('',*,*,#353,.F.);
#222=ORIENTED_EDGE('',*,*,#359,.F.);
#223=ORIENTED_EDGE('',*,*,#360,.F.);
#224=ORIENTED_EDGE('',*,*,#358,.F.);
#225=ORIENTED_EDGE('',*,*,#361,.F.);
#226=ORIENTED_EDGE('',*,*,#362,.F.);
#227=ORIENTED_EDGE('',*,*,#354,.T.);
#228=ORIENTED_EDGE('',*,*,#362,.T.);
#229=ORIENTED_EDGE('',*,*,#363,.F.);
#230=ORIENTED_EDGE('',*,*,#364,.F.);
#231=ORIENTED_EDGE('',*,*,#355,.T.);
#232=ORIENTED_EDGE('',*,*,#364,.T.);
#233=ORIENTED_EDGE('',*,*,#365,.F.);
#234=ORIENTED_EDGE('',*,*,#366,.F.);
#235=ORIENTED_EDGE('',*,*,#356,.T.);
#236=ORIENTED_EDGE('',*,*,#366,.T.);
#237=ORIENTED_EDGE('',*,*,#367,.F.);
#238=ORIENTED_EDGE('',*,*,#368,.T.);
#239=ORIENTED_EDGE('',*,*,#357,.F.);
#240=ORIENTED_EDGE('',*,*,#359,.T.);
#241=ORIENTED_EDGE('',*,*,#352,.T.);
#242=ORIENTED_EDGE('',*,*,#368,.F.);
#243=ORIENTED_EDGE('',*,*,#369,.F.);
#244=ORIENTED_EDGE('',*,*,#350,.F.);
#245=ORIENTED_EDGE('',*,*,#347,.F.);
#246=ORIENTED_EDGE('',*,*,#351,.T.);
#247=ORIENTED_EDGE('',*,*,#346,.T.);
#248=ORIENTED_EDGE('',*,*,#369,.T.);
#249=ORIENTED_EDGE('',*,*,#367,.T.);
#250=ORIENTED_EDGE('',*,*,#365,.T.);
#251=ORIENTED_EDGE('',*,*,#363,.T.);
#252=ORIENTED_EDGE('',*,*,#361,.T.);
#253=ORIENTED_EDGE('',*,*,#360,.T.);
#254=ORIENTED_EDGE('',*,*,#320,.T.);
#255=ORIENTED_EDGE('',*,*,#263,.F.);
#256=ORIENTED_EDGE('',*,*,#270,.T.);
#257=ORIENTED_EDGE('',*,*,#309,.T.);
#258=ORIENTED_EDGE('',*,*,#305,.F.);
#259=ORIENTED_EDGE('',*,*,#325,.F.);
#260=ORIENTED_EDGE('',*,*,#315,.T.);
#261=ORIENTED_EDGE('',*,*,#274,.F.);
#262=EDGE_CURVE('',#370,#371,#442,.T.);
#263=EDGE_CURVE('',#371,#372,#443,.T.);
#264=EDGE_CURVE('',#373,#372,#444,.T.);
#265=EDGE_CURVE('',#373,#374,#28,.T.);
#266=EDGE_CURVE('',#375,#374,#445,.T.);
#267=EDGE_CURVE('',#376,#375,#446,.T.);
#268=EDGE_CURVE('',#376,#377,#447,.T.);
#269=EDGE_CURVE('',#370,#377,#29,.T.);
#270=EDGE_CURVE('',#371,#378,#448,.T.);
#271=EDGE_CURVE('',#370,#379,#449,.T.);
#272=EDGE_CURVE('',#379,#378,#450,.T.);
#273=EDGE_CURVE('',#380,#381,#451,.T.);
#274=EDGE_CURVE('',#381,#382,#452,.T.);
#275=EDGE_CURVE('',#382,#383,#453,.T.);
#276=EDGE_CURVE('',#383,#380,#454,.T.);
#277=EDGE_CURVE('',#374,#384,#455,.T.);
#278=EDGE_CURVE('',#385,#384,#456,.T.);
#279=EDGE_CURVE('',#386,#385,#457,.T.);
#280=EDGE_CURVE('',#386,#387,#458,.T.);
#281=EDGE_CURVE('',#388,#387,#459,.T.);
#282=EDGE_CURVE('',#389,#388,#460,.T.);
#283=EDGE_CURVE('',#389,#375,#461,.T.);
#284=EDGE_CURVE('',#390,#391,#462,.T.);
#285=EDGE_CURVE('',#392,#390,#463,.T.);
#286=EDGE_CURVE('',#393,#392,#464,.T.);
#287=EDGE_CURVE('',#393,#394,#465,.T.);
#288=EDGE_CURVE('',#394,#395,#466,.T.);
#289=EDGE_CURVE('',#396,#395,#467,.T.);
#290=EDGE_CURVE('',#396,#397,#468,.T.);
#291=EDGE_CURVE('',#397,#398,#469,.T.);
#292=EDGE_CURVE('',#399,#398,#470,.T.);
#293=EDGE_CURVE('',#389,#399,#471,.T.);
#294=EDGE_CURVE('',#388,#391,#472,.T.);
#295=EDGE_CURVE('',#400,#401,#473,.T.);
#296=EDGE_CURVE('',#402,#400,#474,.T.);
#297=EDGE_CURVE('',#402,#403,#475,.T.);
#298=EDGE_CURVE('',#403,#401,#476,.T.);
#299=EDGE_CURVE('',#404,#405,#477,.T.);
#300=EDGE_CURVE('',#404,#406,#478,.T.);
#301=EDGE_CURVE('',#406,#407,#479,.T.);
#302=EDGE_CURVE('',#401,#407,#480,.T.);
#303=EDGE_CURVE('',#403,#408,#30,.T.);
#304=EDGE_CURVE('',#409,#408,#481,.T.);
#305=EDGE_CURVE('',#409,#381,#482,.T.);
#306=EDGE_CURVE('',#380,#385,#31,.F.);
#307=EDGE_CURVE('',#410,#384,#32,.T.);
#308=EDGE_CURVE('',#411,#410,#483,.T.);
#309=EDGE_CURVE('',#378,#411,#484,.T.);
#310=EDGE_CURVE('',#379,#405,#33,.T.);
#311=EDGE_CURVE('',#412,#413,#485,.T.);
#312=EDGE_CURVE('',#414,#412,#34,.F.);
#313=EDGE_CURVE('',#414,#415,#486,.T.);
#314=EDGE_CURVE('',#415,#413,#35,.T.);
#315=EDGE_CURVE('',#416,#382,#487,.T.);
#316=EDGE_CURVE('',#416,#417,#488,.T.);
#317=EDGE_CURVE('',#402,#417,#36,.T.);
#318=EDGE_CURVE('',#400,#387,#489,.T.);
#319=EDGE_CURVE('',#386,#383,#37,.T.);
#320=EDGE_CURVE('',#411,#372,#490,.T.);
#321=EDGE_CURVE('',#373,#410,#491,.T.);
#322=EDGE_CURVE('',#376,#404,#492,.T.);
#323=EDGE_CURVE('',#377,#405,#493,.F.);
#324=EDGE_CURVE('',#417,#408,#494,.F.);
#325=EDGE_CURVE('',#416,#409,#495,.T.);
#326=EDGE_CURVE('',#399,#406,#496,.T.);
#327=EDGE_CURVE('',#397,#418,#497,.T.);
#328=EDGE_CURVE('',#418,#419,#498,.T.);
#329=EDGE_CURVE('',#391,#419,#499,.T.);
#330=EDGE_CURVE('',#398,#407,#500,.T.);
#331=EDGE_CURVE('',#420,#421,#501,.T.);
#332=EDGE_CURVE('',#422,#421,#502,.T.);
#333=EDGE_CURVE('',#423,#422,#503,.T.);
#334=EDGE_CURVE('',#420,#423,#504,.T.);
#335=EDGE_CURVE('',#393,#422,#505,.T.);
#336=EDGE_CURVE('',#392,#423,#506,.T.);
#337=EDGE_CURVE('',#394,#421,#507,.T.);
#338=EDGE_CURVE('',#396,#424,#508,.T.);
#339=EDGE_CURVE('',#395,#420,#509,.T.);
#340=EDGE_CURVE('',#390,#425,#510,.T.);
#341=EDGE_CURVE('',#424,#425,#511,.T.);
#342=EDGE_CURVE('',#424,#418,#512,.T.);
#343=EDGE_CURVE('',#425,#419,#513,.T.);
#344=EDGE_CURVE('',#426,#415,#514,.T.);
#345=EDGE_CURVE('',#427,#414,#515,.F.);
#346=EDGE_CURVE('',#426,#427,#516,.T.);
#347=EDGE_CURVE('',#428,#429,#517,.T.);
#348=EDGE_CURVE('',#429,#412,#518,.T.);
#349=EDGE_CURVE('',#428,#413,#519,.F.);
#350=EDGE_CURVE('',#429,#427,#38,.T.);
#351=EDGE_CURVE('',#428,#426,#39,.F.);
#352=EDGE_CURVE('',#430,#431,#40,.T.);
#353=EDGE_CURVE('',#430,#432,#520,.T.);
#354=EDGE_CURVE('',#433,#432,#41,.T.);
#355=EDGE_CURVE('',#434,#433,#521,.T.);
#356=EDGE_CURVE('',#435,#434,#522,.T.);
#357=EDGE_CURVE('',#435,#431,#523,.T.);
#358=EDGE_CURVE('',#436,#432,#42,.T.);
#359=EDGE_CURVE('',#437,#430,#43,.T.);
#360=EDGE_CURVE('',#436,#437,#524,.T.);
#361=EDGE_CURVE('',#438,#436,#44,.T.);
#362=EDGE_CURVE('',#433,#438,#14,.T.);
#363=EDGE_CURVE('',#439,#438,#525,.T.);
#364=EDGE_CURVE('',#434,#439,#12,.F.);
#365=EDGE_CURVE('',#440,#439,#526,.T.);
#366=EDGE_CURVE('',#435,#440,#13,.F.);
#367=EDGE_CURVE('',#441,#440,#527,.F.);
#368=EDGE_CURVE('',#441,#431,#15,.F.);
#369=EDGE_CURVE('',#437,#441,#45,.T.);
#370=VERTEX_POINT('',#1050);
#371=VERTEX_POINT('',#1051);
#372=VERTEX_POINT('',#1053);
#373=VERTEX_POINT('',#1055);
#374=VERTEX_POINT('',#1057);
#375=VERTEX_POINT('',#1059);
#376=VERTEX_POINT('',#1061);
#377=VERTEX_POINT('',#1063);
#378=VERTEX_POINT('',#1067);
#379=VERTEX_POINT('',#1069);
#380=VERTEX_POINT('',#1073);
#381=VERTEX_POINT('',#1074);
#382=VERTEX_POINT('',#1076);
#383=VERTEX_POINT('',#1078);
#384=VERTEX_POINT('',#1082);
#385=VERTEX_POINT('',#1084);
#386=VERTEX_POINT('',#1086);
#387=VERTEX_POINT('',#1088);
#388=VERTEX_POINT('',#1090);
#389=VERTEX_POINT('',#1092);
#390=VERTEX_POINT('',#1096);
#391=VERTEX_POINT('',#1097);
#392=VERTEX_POINT('',#1099);
#393=VERTEX_POINT('',#1101);
#394=VERTEX_POINT('',#1103);
#395=VERTEX_POINT('',#1105);
#396=VERTEX_POINT('',#1107);
#397=VERTEX_POINT('',#1109);
#398=VERTEX_POINT('',#1111);
#399=VERTEX_POINT('',#1113);
#400=VERTEX_POINT('',#1118);
#401=VERTEX_POINT('',#1119);
#402=VERTEX_POINT('',#1121);
#403=VERTEX_POINT('',#1123);
#404=VERTEX_POINT('',#1127);
#405=VERTEX_POINT('',#1128);
#406=VERTEX_POINT('',#1130);
#407=VERTEX_POINT('',#1132);
#408=VERTEX_POINT('',#1135);
#409=VERTEX_POINT('',#1137);
#410=VERTEX_POINT('',#1141);
#411=VERTEX_POINT('',#1143);
#412=VERTEX_POINT('',#1147);
#413=VERTEX_POINT('',#1148);
#414=VERTEX_POINT('',#1150);
#415=VERTEX_POINT('',#1152);
#416=VERTEX_POINT('',#1156);
#417=VERTEX_POINT('',#1158);
#418=VERTEX_POINT('',#1179);
#419=VERTEX_POINT('',#1181);
#420=VERTEX_POINT('',#1187);
#421=VERTEX_POINT('',#1188);
#422=VERTEX_POINT('',#1190);
#423=VERTEX_POINT('',#1192);
#424=VERTEX_POINT('',#1201);
#425=VERTEX_POINT('',#1204);
#426=VERTEX_POINT('',#1214);
#427=VERTEX_POINT('',#1216);
#428=VERTEX_POINT('',#1220);
#429=VERTEX_POINT('',#1221);
#430=VERTEX_POINT('',#1230);
#431=VERTEX_POINT('',#1231);
#432=VERTEX_POINT('',#1233);
#433=VERTEX_POINT('',#1235);
#434=VERTEX_POINT('',#1237);
#435=VERTEX_POINT('',#1239);
#436=VERTEX_POINT('',#1243);
#437=VERTEX_POINT('',#1245);
#438=VERTEX_POINT('',#1249);
#439=VERTEX_POINT('',#1259);
#440=VERTEX_POINT('',#1263);
#441=VERTEX_POINT('',#1267);
#442=LINE('',#1049,#528);
#443=LINE('',#1052,#529);
#444=LINE('',#1054,#530);
#445=LINE('',#1058,#531);
#446=LINE('',#1060,#532);
#447=LINE('',#1062,#533);
#448=LINE('',#1066,#534);
#449=LINE('',#1068,#535);
#450=LINE('',#1070,#536);
#451=LINE('',#1072,#537);
#452=LINE('',#1075,#538);
#453=LINE('',#1077,#539);
#454=LINE('',#1079,#540);
#455=LINE('',#1081,#541);
#456=LINE('',#1083,#542);
#457=LINE('',#1085,#543);
#458=LINE('',#1087,#544);
#459=LINE('',#1089,#545);
#460=LINE('',#1091,#546);
#461=LINE('',#1093,#547);
#462=LINE('',#1095,#548);
#463=LINE('',#1098,#549);
#464=LINE('',#1100,#550);
#465=LINE('',#1102,#551);
#466=LINE('',#1104,#552);
#467=LINE('',#1106,#553);
#468=LINE('',#1108,#554);
#469=LINE('',#1110,#555);
#470=LINE('',#1112,#556);
#471=LINE('',#1114,#557);
#472=LINE('',#1115,#558);
#473=LINE('',#1117,#559);
#474=LINE('',#1120,#560);
#475=LINE('',#1122,#561);
#476=LINE('',#1124,#562);
#477=LINE('',#1126,#563);
#478=LINE('',#1129,#564);
#479=LINE('',#1131,#565);
#480=LINE('',#1133,#566);
#481=LINE('',#1136,#567);
#482=LINE('',#1138,#568);
#483=LINE('',#1142,#569);
#484=LINE('',#1144,#570);
#485=LINE('',#1146,#571);
#486=LINE('',#1151,#572);
#487=LINE('',#1155,#573);
#488=LINE('',#1157,#574);
#489=LINE('',#1160,#575);
#490=LINE('',#1164,#576);
#491=LINE('',#1165,#577);
#492=LINE('',#1168,#578);
#493=LINE('',#1169,#579);
#494=LINE('',#1171,#580);
#495=LINE('',#1173,#581);
#496=LINE('',#1176,#582);
#497=LINE('',#1178,#583);
#498=LINE('',#1180,#584);
#499=LINE('',#1182,#585);
#500=LINE('',#1183,#586);
#501=LINE('',#1186,#587);
#502=LINE('',#1189,#588);
#503=LINE('',#1191,#589);
#504=LINE('',#1193,#590);
#505=LINE('',#1195,#591);
#506=LINE('',#1196,#592);
#507=LINE('',#1198,#593);
#508=LINE('',#1200,#594);
#509=LINE('',#1202,#595);
#510=LINE('',#1203,#596);
#511=LINE('',#1205,#597);
#512=LINE('',#1208,#598);
#513=LINE('',#1210,#599);
#514=LINE('',#1213,#600);
#515=LINE('',#1215,#601);
#516=LINE('',#1217,#602);
#517=LINE('',#1219,#603);
#518=LINE('',#1222,#604);
#519=LINE('',#1223,#605);
#520=LINE('',#1232,#606);
#521=LINE('',#1236,#607);
#522=LINE('',#1238,#608);
#523=LINE('',#1240,#609);
#524=LINE('',#1246,#610);
#525=LINE('',#1258,#611);
#526=LINE('',#1262,#612);
#527=LINE('',#1266,#613);
#528=VECTOR('',#843,1.);
#529=VECTOR('',#844,1.);
#530=VECTOR('',#845,1.);
#531=VECTOR('',#848,1.);
#532=VECTOR('',#849,1.);
#533=VECTOR('',#850,1.);
#534=VECTOR('',#855,1.);
#535=VECTOR('',#856,1.);
#536=VECTOR('',#857,1.);
#537=VECTOR('',#860,1.);
#538=VECTOR('',#861,1.);
#539=VECTOR('',#862,1.);
#540=VECTOR('',#863,1.);
#541=VECTOR('',#866,1.);
#542=VECTOR('',#867,1.);
#543=VECTOR('',#868,1.);
#544=VECTOR('',#869,1.);
#545=VECTOR('',#870,1.);
#546=VECTOR('',#871,1.);
#547=VECTOR('',#872,1.);
#548=VECTOR('',#875,1.);
#549=VECTOR('',#876,1.);
#550=VECTOR('',#877,1.);
#551=VECTOR('',#878,1.);
#552=VECTOR('',#879,1.);
#553=VECTOR('',#880,1.);
#554=VECTOR('',#881,1.);
#555=VECTOR('',#882,1.);
#556=VECTOR('',#883,1.);
#557=VECTOR('',#884,1.);
#558=VECTOR('',#885,1.);
#559=VECTOR('',#888,1.);
#560=VECTOR('',#889,1.);
#561=VECTOR('',#890,1.);
#562=VECTOR('',#891,1.);
#563=VECTOR('',#894,1.);
#564=VECTOR('',#895,1.);
#565=VECTOR('',#896,1.);
#566=VECTOR('',#897,1.);
#567=VECTOR('',#900,1.);
#568=VECTOR('',#901,1.);
#569=VECTOR('',#906,1.);
#570=VECTOR('',#907,1.);
#571=VECTOR('',#910,1.);
#572=VECTOR('',#913,1.);
#573=VECTOR('',#918,1.);
#574=VECTOR('',#919,1.);
#575=VECTOR('',#922,1.);
#576=VECTOR('',#929,1.);
#577=VECTOR('',#930,1.);
#578=VECTOR('',#935,1.);
#579=VECTOR('',#936,1.);
#580=VECTOR('',#939,1.);
#581=VECTOR('',#942,1.);
#582=VECTOR('',#947,1.);
#583=VECTOR('',#950,1.);
#584=VECTOR('',#951,1.);
#585=VECTOR('',#952,1.);
#586=VECTOR('',#953,1.);
#587=VECTOR('',#958,1.);
#588=VECTOR('',#959,1.);
#589=VECTOR('',#960,1.);
#590=VECTOR('',#961,1.);
#591=VECTOR('',#964,1.);
#592=VECTOR('',#965,1.);
#593=VECTOR('',#968,1.);
#594=VECTOR('',#971,1.);
#595=VECTOR('',#972,1.);
#596=VECTOR('',#973,1.);
#597=VECTOR('',#974,1.);
#598=VECTOR('',#979,1.);
#599=VECTOR('',#982,1.);
#600=VECTOR('',#987,1.);
#601=VECTOR('',#988,1.);
#602=VECTOR('',#989,1.);
#603=VECTOR('',#992,1.);
#604=VECTOR('',#993,1.);
#605=VECTOR('',#994,1.);
#606=VECTOR('',#1007,1.);
#607=VECTOR('',#1010,1.);
#608=VECTOR('',#1011,1.);
#609=VECTOR('',#1012,1.);
#610=VECTOR('',#1019,1.);
#611=VECTOR('',#1026,1.);
#612=VECTOR('',#1031,1.);
#613=VECTOR('',#1036,1.);
#614=EDGE_LOOP('',(#46,#47,#48,#49,#50,#51,#52,#53));
#615=EDGE_LOOP('',(#54,#55,#56,#57));
#616=EDGE_LOOP('',(#58,#59,#60,#61));
#617=EDGE_LOOP('',(#62,#63,#64,#65,#66,#67,#68,#69));
#618=EDGE_LOOP('',(#70,#71,#72,#73,#74,#75,#76,#77,#78,#79,#80,#81));
#619=EDGE_LOOP('',(#82,#83,#84,#85));
#620=EDGE_LOOP('',(#86,#87,#88,#89,#90,#91,#92,#93,#94,#95,#96,#97,#98,
#99,#100,#101));
#621=EDGE_LOOP('',(#102,#103,#104,#105));
#622=EDGE_LOOP('',(#106,#107,#108,#109,#110,#111,#112,#113));
#623=EDGE_LOOP('',(#114,#115,#116,#117));
#624=EDGE_LOOP('',(#118,#119,#120,#121));
#625=EDGE_LOOP('',(#122,#123,#124,#125));
#626=EDGE_LOOP('',(#126,#127,#128,#129));
#627=EDGE_LOOP('',(#130,#131,#132,#133));
#628=EDGE_LOOP('',(#134,#135,#136,#137));
#629=EDGE_LOOP('',(#138,#139,#140,#141));
#630=EDGE_LOOP('',(#142,#143,#144,#145,#146,#147));
#631=EDGE_LOOP('',(#148,#149,#150,#151,#152,#153,#154,#155,#156,#157));
#632=EDGE_LOOP('',(#158,#159,#160,#161));
#633=EDGE_LOOP('',(#162,#163,#164,#165));
#634=EDGE_LOOP('',(#166,#167,#168,#169));
#635=EDGE_LOOP('',(#170,#171,#172,#173));
#636=EDGE_LOOP('',(#174,#175,#176,#177,#178,#179,#180,#181));
#637=EDGE_LOOP('',(#182,#183,#184,#185));
#638=EDGE_LOOP('',(#186,#187,#188,#189));
#639=EDGE_LOOP('',(#190,#191,#192,#193));
#640=EDGE_LOOP('',(#194,#195,#196,#197));
#641=EDGE_LOOP('',(#198,#199,#200,#201));
#642=EDGE_LOOP('',(#202,#203,#204,#205));
#643=EDGE_LOOP('',(#206,#207,#208,#209));
#644=EDGE_LOOP('',(#210,#211,#212,#213));
#645=EDGE_LOOP('',(#214,#215,#216,#217,#218,#219));
#646=EDGE_LOOP('',(#220,#221,#222,#223));
#647=EDGE_LOOP('',(#224,#225,#226,#227));
#648=EDGE_LOOP('',(#228,#229,#230,#231));
#649=EDGE_LOOP('',(#232,#233,#234,#235));
#650=EDGE_LOOP('',(#236,#237,#238,#239));
#651=EDGE_LOOP('',(#240,#241,#242,#243));
#652=EDGE_LOOP('',(#244,#245,#246,#247));
#653=EDGE_LOOP('',(#248,#249,#250,#251,#252,#253));
#654=EDGE_LOOP('',(#254,#255,#256,#257));
#655=EDGE_LOOP('',(#258,#259,#260,#261));
#656=FACE_BOUND('',#614,.T.);
#657=FACE_BOUND('',#615,.T.);
#658=FACE_BOUND('',#616,.T.);
#659=FACE_BOUND('',#617,.T.);
#660=FACE_BOUND('',#618,.T.);
#661=FACE_BOUND('',#619,.T.);
#662=FACE_BOUND('',#620,.T.);
#663=FACE_BOUND('',#621,.T.);
#664=FACE_BOUND('',#622,.T.);
#665=FACE_BOUND('',#623,.T.);
#666=FACE_BOUND('',#624,.T.);
#667=FACE_BOUND('',#625,.T.);
#668=FACE_BOUND('',#626,.T.);
#669=FACE_BOUND('',#627,.T.);
#670=FACE_BOUND('',#628,.T.);
#671=FACE_BOUND('',#629,.T.);
#672=FACE_BOUND('',#630,.T.);
#673=FACE_BOUND('',#631,.T.);
#674=FACE_BOUND('',#632,.T.);
#675=FACE_BOUND('',#633,.T.);
#676=FACE_BOUND('',#634,.T.);
#677=FACE_BOUND('',#635,.T.);
#678=FACE_BOUND('',#636,.T.);
#679=FACE_BOUND('',#637,.T.);
#680=FACE_BOUND('',#638,.T.);
#681=FACE_BOUND('',#639,.T.);
#682=FACE_BOUND('',#640,.T.);
#683=FACE_BOUND('',#641,.T.);
#684=FACE_BOUND('',#642,.T.);
#685=FACE_BOUND('',#643,.T.);
#686=FACE_BOUND('',#644,.T.);
#687=FACE_BOUND('',#645,.T.);
#688=FACE_BOUND('',#646,.T.);
#689=FACE_BOUND('',#647,.T.);
#690=FACE_BOUND('',#648,.T.);
#691=FACE_BOUND('',#649,.T.);
#692=FACE_BOUND('',#650,.T.);
#693=FACE_BOUND('',#651,.T.);
#694=FACE_BOUND('',#652,.T.);
#695=FACE_BOUND('',#653,.T.);
#696=FACE_BOUND('',#654,.T.);
#697=FACE_BOUND('',#655,.T.);
#698=PLANE('',#779);
#699=PLANE('',#782);
#700=PLANE('',#783);
#701=PLANE('',#784);
#702=PLANE('',#785);
#703=PLANE('',#786);
#704=PLANE('',#787);
#705=PLANE('',#794);
#706=PLANE('',#798);
#707=PLANE('',#800);
#708=PLANE('',#802);
#709=PLANE('',#804);
#710=PLANE('',#805);
#711=PLANE('',#806);
#712=PLANE('',#807);
#713=PLANE('',#808);
#714=PLANE('',#809);
#715=PLANE('',#810);
#716=PLANE('',#811);
#717=PLANE('',#812);
#718=PLANE('',#813);
#719=PLANE('',#814);
#720=PLANE('',#815);
#721=PLANE('',#816);
#722=PLANE('',#821);
#723=PLANE('',#836);
#724=PLANE('',#837);
#725=PLANE('',#838);
#726=ADVANCED_FACE('',(#656),#698,.T.);
#727=ADVANCED_FACE('',(#657),#699,.F.);
#728=ADVANCED_FACE('',(#658),#700,.T.);
#729=ADVANCED_FACE('',(#659),#701,.T.);
#730=ADVANCED_FACE('',(#660),#702,.T.);
#731=ADVANCED_FACE('',(#661),#703,.F.);
#732=ADVANCED_FACE('',(#662,#663),#704,.T.);
#733=ADVANCED_FACE('',(#664),#705,.T.);
#734=ADVANCED_FACE('',(#665),#18,.T.);
#735=ADVANCED_FACE('',(#666),#706,.T.);
#736=ADVANCED_FACE('',(#667),#19,.T.);
#737=ADVANCED_FACE('',(#668),#707,.F.);
#738=ADVANCED_FACE('',(#669),#20,.F.);
#739=ADVANCED_FACE('',(#670),#708,.F.);
#740=ADVANCED_FACE('',(#671),#21,.F.);
#741=ADVANCED_FACE('',(#672),#709,.T.);
#742=ADVANCED_FACE('',(#673),#710,.F.);
#743=ADVANCED_FACE('',(#674),#711,.T.);
#744=ADVANCED_FACE('',(#675),#712,.T.);
#745=ADVANCED_FACE('',(#676),#713,.F.);
#746=ADVANCED_FACE('',(#677),#714,.F.);
#747=ADVANCED_FACE('',(#678),#715,.T.);
#748=ADVANCED_FACE('',(#679),#716,.F.);
#749=ADVANCED_FACE('',(#680),#717,.T.);
#750=ADVANCED_FACE('',(#681),#718,.F.);
#751=ADVANCED_FACE('',(#682),#719,.T.);
#752=ADVANCED_FACE('',(#683),#720,.T.);
#753=ADVANCED_FACE('',(#684),#721,.F.);
#754=ADVANCED_FACE('',(#685),#22,.F.);
#755=ADVANCED_FACE('',(#686),#23,.F.);
#756=ADVANCED_FACE('',(#687),#722,.F.);
#757=ADVANCED_FACE('',(#688),#24,.T.);
#758=ADVANCED_FACE('',(#689),#16,.T.);
#759=ADVANCED_FACE('',(#690),#25,.T.);
#760=ADVANCED_FACE('',(#691),#26,.T.);
#761=ADVANCED_FACE('',(#692),#27,.T.);
#762=ADVANCED_FACE('',(#693),#17,.T.);
#763=ADVANCED_FACE('',(#694,#695),#723,.T.);
#764=ADVANCED_FACE('',(#696),#724,.F.);
#765=ADVANCED_FACE('',(#697),#725,.T.);
#766=CLOSED_SHELL('',(#726,#727,#728,#729,#730,#731,#732,#733,#734,#735,
#736,#737,#738,#739,#740,#741,#742,#743,#744,#745,#746,#747,#748,#749,#750,
#751,#752,#753,#754,#755,#756,#757,#758,#759,#760,#761,#762,#763,#764,#765));
#767=STYLED_ITEM('',(#768),#775);
#768=PRESENTATION_STYLE_ASSIGNMENT((#769));
#769=SURFACE_STYLE_USAGE(.BOTH.,#770);
#770=SURFACE_SIDE_STYLE('',(#771));
#771=SURFACE_STYLE_FILL_AREA(#772);
#772=FILL_AREA_STYLE('',(#773));
#773=FILL_AREA_STYLE_COLOUR('',#774);
#774=COLOUR_RGB('',0.917647058823529,0.917647058823529,0.917647058823529);
#775=MANIFOLD_SOLID_BREP('base',#766);
#776=SHAPE_DEFINITION_REPRESENTATION(#1286,#777);
#777=SHAPE_REPRESENTATION('base',(#778),#1281);
#778=AXIS2_PLACEMENT_3D('',#1047,#839,#840);
#779=AXIS2_PLACEMENT_3D('',#1048,#841,#842);
#780=AXIS2_PLACEMENT_3D('',#1056,#846,#847);
#781=AXIS2_PLACEMENT_3D('',#1064,#851,#852);
#782=AXIS2_PLACEMENT_3D('',#1065,#853,#854);
#783=AXIS2_PLACEMENT_3D('',#1071,#858,#859);
#784=AXIS2_PLACEMENT_3D('',#1080,#864,#865);
#785=AXIS2_PLACEMENT_3D('',#1094,#873,#874);
#786=AXIS2_PLACEMENT_3D('',#1116,#886,#887);
#787=AXIS2_PLACEMENT_3D('',#1125,#892,#893);
#788=AXIS2_PLACEMENT_3D('',#1134,#898,#899);
#789=AXIS2_PLACEMENT_3D('',#1139,#902,#903);
#790=AXIS2_PLACEMENT_3D('',#1140,#904,#905);
#791=AXIS2_PLACEMENT_3D('',#1145,#908,#909);
#792=AXIS2_PLACEMENT_3D('',#1149,#911,#912);
#793=AXIS2_PLACEMENT_3D('',#1153,#914,#915);
#794=AXIS2_PLACEMENT_3D('',#1154,#916,#917);
#795=AXIS2_PLACEMENT_3D('',#1159,#920,#921);
#796=AXIS2_PLACEMENT_3D('',#1161,#923,#924);
#797=AXIS2_PLACEMENT_3D('',#1162,#925,#926);
#798=AXIS2_PLACEMENT_3D('',#1163,#927,#928);
#799=AXIS2_PLACEMENT_3D('',#1166,#931,#932);
#800=AXIS2_PLACEMENT_3D('',#1167,#933,#934);
#801=AXIS2_PLACEMENT_3D('',#1170,#937,#938);
#802=AXIS2_PLACEMENT_3D('',#1172,#940,#941);
#803=AXIS2_PLACEMENT_3D('',#1174,#943,#944);
#804=AXIS2_PLACEMENT_3D('',#1175,#945,#946);
#805=AXIS2_PLACEMENT_3D('',#1177,#948,#949);
#806=AXIS2_PLACEMENT_3D('',#1184,#954,#955);
#807=AXIS2_PLACEMENT_3D('',#1185,#956,#957);
#808=AXIS2_PLACEMENT_3D('',#1194,#962,#963);
#809=AXIS2_PLACEMENT_3D('',#1197,#966,#967);
#810=AXIS2_PLACEMENT_3D('',#1199,#969,#970);
#811=AXIS2_PLACEMENT_3D('',#1206,#975,#976);
#812=AXIS2_PLACEMENT_3D('',#1207,#977,#978);
#813=AXIS2_PLACEMENT_3D('',#1209,#980,#981);
#814=AXIS2_PLACEMENT_3D('',#1211,#983,#984);
#815=AXIS2_PLACEMENT_3D('',#1212,#985,#986);
#816=AXIS2_PLACEMENT_3D('',#1218,#990,#991);
#817=AXIS2_PLACEMENT_3D('',#1224,#995,#996);
#818=AXIS2_PLACEMENT_3D('',#1225,#997,#998);
#819=AXIS2_PLACEMENT_3D('',#1226,#999,#1000);
#820=AXIS2_PLACEMENT_3D('',#1227,#1001,#1002);
#821=AXIS2_PLACEMENT_3D('',#1228,#1003,#1004);
#822=AXIS2_PLACEMENT_3D('',#1229,#1005,#1006);
#823=AXIS2_PLACEMENT_3D('',#1234,#1008,#1009);
#824=AXIS2_PLACEMENT_3D('',#1241,#1013,#1014);
#825=AXIS2_PLACEMENT_3D('',#1242,#1015,#1016);
#826=AXIS2_PLACEMENT_3D('',#1244,#1017,#1018);
#827=AXIS2_PLACEMENT_3D('',#1247,#1020,#1021);
#828=AXIS2_PLACEMENT_3D('',#1248,#1022,#1023);
#829=AXIS2_PLACEMENT_3D('',#1257,#1024,#1025);
#830=AXIS2_PLACEMENT_3D('',#1260,#1027,#1028);
#831=AXIS2_PLACEMENT_3D('',#1261,#1029,#1030);
#832=AXIS2_PLACEMENT_3D('',#1264,#1032,#1033);
#833=AXIS2_PLACEMENT_3D('',#1265,#1034,#1035);
#834=AXIS2_PLACEMENT_3D('',#1275,#1037,#1038);
#835=AXIS2_PLACEMENT_3D('',#1276,#1039,#1040);
#836=AXIS2_PLACEMENT_3D('',#1277,#1041,#1042);
#837=AXIS2_PLACEMENT_3D('',#1278,#1043,#1044);
#838=AXIS2_PLACEMENT_3D('',#1279,#1045,#1046);
#839=DIRECTION('',(0.,0.,1.));
#840=DIRECTION('',(1.,0.,0.));
#841=DIRECTION('',(0.,0.,1.));
#842=DIRECTION('',(1.,0.,0.));
#843=DIRECTION('',(1.,9.91270557701033E-17,0.));
#844=DIRECTION('',(-9.91270557701033E-17,1.,0.));
#845=DIRECTION('',(1.,9.91270557701033E-17,0.));
#846=DIRECTION('',(0.,0.,1.));
#847=DIRECTION('',(1.,0.,0.));
#848=DIRECTION('',(-1.,-1.98254111540206E-16,0.));
#849=DIRECTION('',(0.,-1.,0.));
#850=DIRECTION('',(-1.,-1.98254111540206E-16,0.));
#851=DIRECTION('',(0.,0.,1.));
#852=DIRECTION('',(1.,0.,0.));
#853=DIRECTION('',(-9.91270557701033E-17,1.,0.));
#854=DIRECTION('',(-1.,-9.91270557701033E-17,0.));
#855=DIRECTION('',(2.89120579329468E-16,2.86596717914767E-32,-1.));
#856=DIRECTION('',(0.,0.,-1.));
#857=DIRECTION('',(1.,9.91270557701033E-17,0.));
#858=DIRECTION('',(-9.91270557701033E-17,1.,0.));
#859=DIRECTION('',(-1.,-9.91270557701033E-17,0.));
#860=DIRECTION('',(-1.,-9.91270557701033E-17,0.));
#861=DIRECTION('',(-2.89120579329468E-16,-2.86596717914767E-32,1.));
#862=DIRECTION('',(1.,9.91270557701033E-17,0.));
#863=DIRECTION('',(0.,0.,-1.));
#864=DIRECTION('',(1.98254111540206E-16,-1.,0.));
#865=DIRECTION('',(1.,1.98254111540206E-16,0.));
#866=DIRECTION('',(0.,0.,-1.));
#867=DIRECTION('',(-1.,-9.91270557701033E-17,0.));
#868=DIRECTION('',(0.,0.,-1.));
#869=DIRECTION('',(-1.,-1.98254111540206E-16,0.));
#870=DIRECTION('',(0.,0.,-1.));
#871=DIRECTION('',(1.,0.,0.));
#872=DIRECTION('',(0.,0.,-1.));
#873=DIRECTION('',(0.,0.,1.));
#874=DIRECTION('',(1.,0.,0.));
#875=DIRECTION('',(1.,-1.73472347597681E-16,0.));
#876=DIRECTION('',(1.73472347597681E-16,1.,0.));
#877=DIRECTION('',(1.,1.98254111540206E-16,0.));
#878=DIRECTION('',(0.,1.,0.));
#879=DIRECTION('',(1.,1.33440267382831E-16,0.));
#880=DIRECTION('',(1.73472347597681E-16,1.,0.));
#881=DIRECTION('',(1.,-1.73472347597681E-16,0.));
#882=DIRECTION('',(1.73472347597681E-16,1.,0.));
#883=DIRECTION('',(1.,1.33440267382831E-16,0.));
#884=DIRECTION('',(0.,1.,0.));
#885=DIRECTION('',(1.73472347597681E-16,1.,0.));
#886=DIRECTION('',(1.98254111540206E-16,-1.,0.));
#887=DIRECTION('',(1.,1.98254111540206E-16,0.));
#888=DIRECTION('',(0.,0.,-1.));
#889=DIRECTION('',(-1.,-1.98254111540206E-16,0.));
#890=DIRECTION('',(0.,0.,-1.));
#891=DIRECTION('',(-1.,-1.98254111540206E-16,0.));
#892=DIRECTION('',(0.,0.,1.));
#893=DIRECTION('',(1.,0.,0.));
#894=DIRECTION('',(-1.,-1.98254111540206E-16,0.));
#895=DIRECTION('',(0.,1.,0.));
#896=DIRECTION('',(1.,1.33440267382831E-16,0.));
#897=DIRECTION('',(1.73472347597681E-16,1.,0.));
#898=DIRECTION('',(0.,0.,1.));
#899=DIRECTION('',(1.,0.,0.));
#900=DIRECTION('',(1.,9.91270557701033E-17,0.));
#901=DIRECTION('',(-9.91270557701033E-17,1.,0.));
#902=DIRECTION('',(0.,0.,1.));
#903=DIRECTION('',(1.,0.,0.));
#904=DIRECTION('',(0.,0.,1.));
#905=DIRECTION('',(1.,0.,0.));
#906=DIRECTION('',(-1.,-9.91270557701033E-17,0.));
#907=DIRECTION('',(-9.91270557701033E-17,1.,0.));
#908=DIRECTION('',(0.,0.,1.));
#909=DIRECTION('',(1.,0.,0.));
#910=DIRECTION('',(-1.,-9.91270557701033E-17,0.));
#911=DIRECTION('',(0.,0.,1.));
#912=DIRECTION('',(1.,0.,0.));
#913=DIRECTION('',(-1.,-9.91270557701033E-17,0.));
#914=DIRECTION('',(0.,0.,1.));
#915=DIRECTION('',(1.,0.,0.));
#916=DIRECTION('',(0.,0.,1.));
#917=DIRECTION('',(1.,0.,0.));
#918=DIRECTION('',(-9.91270557701033E-17,1.,0.));
#919=DIRECTION('',(1.,9.91270557701033E-17,0.));
#920=DIRECTION('',(0.,0.,1.));
#921=DIRECTION('',(1.,0.,0.));
#922=DIRECTION('',(-1.73472347597681E-16,-1.,0.));
#923=DIRECTION('',(0.,0.,1.));
#924=DIRECTION('',(1.,0.,0.));
#925=DIRECTION('',(0.,0.,-1.));
#926=DIRECTION('',(-1.,0.,0.));
#927=DIRECTION('',(-9.91270557701033E-17,1.,0.));
#928=DIRECTION('',(-1.,-9.91270557701033E-17,0.));
#929=DIRECTION('',(-2.89120579329468E-16,-2.86596717914767E-32,1.));
#930=DIRECTION('',(0.,0.,-1.));
#931=DIRECTION('',(0.,0.,-1.));
#932=DIRECTION('',(-1.,0.,0.));
#933=DIRECTION('',(1.98254111540206E-16,-1.,0.));
#934=DIRECTION('',(1.,1.98254111540206E-16,0.));
#935=DIRECTION('',(0.,0.,-1.));
#936=DIRECTION('',(0.,0.,1.));
#937=DIRECTION('',(0.,0.,-1.));
#938=DIRECTION('',(-1.,0.,0.));
#939=DIRECTION('',(0.,0.,1.));
#940=DIRECTION('',(-9.91270557701033E-17,1.,0.));
#941=DIRECTION('',(-1.,-9.91270557701033E-17,0.));
#942=DIRECTION('',(2.89120579329468E-16,2.86596717914767E-32,-1.));
#943=DIRECTION('',(0.,0.,-1.));
#944=DIRECTION('',(-1.,0.,0.));
#945=DIRECTION('',(-1.,0.,0.));
#946=DIRECTION('',(0.,0.,1.));
#947=DIRECTION('',(0.,0.,-1.));
#948=DIRECTION('',(-1.,1.73472347597681E-16,0.));
#949=DIRECTION('',(-1.73472347597681E-16,-1.,0.));
#950=DIRECTION('',(0.,0.,-1.));
#951=DIRECTION('',(-1.73472347597681E-16,-1.,1.0842021724855E-16));
#952=DIRECTION('',(0.,0.,-1.));
#953=DIRECTION('',(0.,0.,-1.));
#954=DIRECTION('',(-1.33440267382831E-16,1.,0.));
#955=DIRECTION('',(-1.,-1.33440267382831E-16,0.));
#956=DIRECTION('',(0.,0.,1.));
#957=DIRECTION('',(1.,0.,0.));
#958=DIRECTION('',(-1.,-1.33440267382831E-16,0.));
#959=DIRECTION('',(0.,1.,0.));
#960=DIRECTION('',(-1.,-1.98254111540206E-16,0.));
#961=DIRECTION('',(-1.73472347597681E-16,-1.,0.));
#962=DIRECTION('',(1.98254111540206E-16,-1.,0.));
#963=DIRECTION('',(1.,1.98254111540206E-16,0.));
#964=DIRECTION('',(0.,0.,-1.));
#965=DIRECTION('',(0.,0.,-1.));
#966=DIRECTION('',(-1.,0.,0.));
#967=DIRECTION('',(0.,0.,1.));
#968=DIRECTION('',(0.,0.,-1.));
#969=DIRECTION('',(-1.,1.73472347597681E-16,0.));
#970=DIRECTION('',(-1.73472347597681E-16,-1.,0.));
#971=DIRECTION('',(0.,0.,-1.));
#972=DIRECTION('',(0.,0.,-1.));
#973=DIRECTION('',(0.,0.,-1.));
#974=DIRECTION('',(-1.73472347597681E-16,-1.,1.0842021724855E-16));
#975=DIRECTION('',(-1.33440267382831E-16,1.,0.));
#976=DIRECTION('',(-1.,-1.33440267382831E-16,0.));
#977=DIRECTION('',(-1.73472347597681E-16,-1.,0.));
#978=DIRECTION('',(1.,-1.73472347597681E-16,0.));
#979=DIRECTION('',(1.,-1.73472347597681E-16,0.));
#980=DIRECTION('',(-1.73472347597681E-16,-1.,0.));
#981=DIRECTION('',(1.,-1.73472347597681E-16,0.));
#982=DIRECTION('',(1.,-1.73472347597681E-16,0.));
#983=DIRECTION('',(1.88079096131566E-32,1.0842021724855E-16,1.));
#984=DIRECTION('',(0.,-1.,1.0842021724855E-16));
#985=DIRECTION('',(9.91270557701033E-17,-1.,0.));
#986=DIRECTION('',(1.,9.91270557701033E-17,0.));
#987=DIRECTION('',(0.,0.,-1.));
#988=DIRECTION('',(0.,0.,1.));
#989=DIRECTION('',(1.,9.91270557701033E-17,0.));
#990=DIRECTION('',(9.91270557701033E-17,-1.,0.));
#991=DIRECTION('',(1.,9.91270557701033E-17,0.));
#992=DIRECTION('',(1.,9.91270557701033E-17,0.));
#993=DIRECTION('',(0.,0.,-1.));
#994=DIRECTION('',(0.,0.,1.));
#995=DIRECTION('',(0.,0.,-1.));
#996=DIRECTION('',(-1.,0.,0.));
#997=DIRECTION('',(0.,0.,1.));
#998=DIRECTION('',(1.,0.,0.));
#999=DIRECTION('',(0.,0.,-1.));
#1000=DIRECTION('',(-1.,0.,0.));
#1001=DIRECTION('',(0.,0.,1.));
#1002=DIRECTION('',(1.,0.,0.));
#1003=DIRECTION('',(0.,0.,1.));
#1004=DIRECTION('',(1.,0.,0.));
#1005=DIRECTION('',(0.,0.,1.));
#1006=DIRECTION('',(1.83568621796487E-16,-1.,0.));
#1007=DIRECTION('',(-1.,-1.98254111540206E-16,0.));
#1008=DIRECTION('',(0.,0.,1.));
#1009=DIRECTION('',(0.,1.,0.));
#1010=DIRECTION('',(9.91270557701033E-17,-1.,4.88734118416859E-48));
#1011=DIRECTION('',(-1.,-9.91270557701033E-17,0.));
#1012=DIRECTION('',(9.91270557701033E-17,-1.,4.88734118416859E-48));
#1013=DIRECTION('',(1.,1.98254111540206E-16,0.));
#1014=DIRECTION('',(-1.98254111540206E-16,1.,0.));
#1015=DIRECTION('',(1.,0.,0.));
#1016=DIRECTION('',(0.,0.,-1.));
#1017=DIRECTION('',(1.,0.,0.));
#1018=DIRECTION('',(0.,0.,-1.));
#1019=DIRECTION('',(1.,1.98254111540206E-16,0.));
#1020=DIRECTION('',(0.,0.,1.));
#1021=DIRECTION('',(1.,0.,0.));
#1022=DIRECTION('',(0.,0.,1.));
#1023=DIRECTION('',(1.,0.,0.));
#1024=DIRECTION('',(9.91270557701033E-17,-1.,0.));
#1025=DIRECTION('',(1.,9.91270557701033E-17,0.));
#1026=DIRECTION('',(9.91270557701033E-17,-1.,0.));
#1027=DIRECTION('',(-0.707106781186548,-0.707106781186548,0.));
#1028=DIRECTION('',(0.707106781186548,-0.707106781186548,0.));
#1029=DIRECTION('',(-1.,-9.91270557701033E-17,0.));
#1030=DIRECTION('',(9.91270557701033E-17,-1.,0.));
#1031=DIRECTION('',(-1.,-9.91270557701033E-17,0.));
#1032=DIRECTION('',(-0.707106781186548,0.707106781186548,0.));
#1033=DIRECTION('',(-0.707106781186548,-0.707106781186548,0.));
#1034=DIRECTION('',(-9.91270557701033E-17,1.,0.));
#1035=DIRECTION('',(-1.,-9.91270557701033E-17,0.));
#1036=DIRECTION('',(9.91270557701033E-17,-1.,0.));
#1037=DIRECTION('',(0.,0.,1.));
#1038=DIRECTION('',(1.,0.,0.));
#1039=DIRECTION('',(0.,0.,1.));
#1040=DIRECTION('',(1.,0.,0.));
#1041=DIRECTION('',(0.,0.,1.));
#1042=DIRECTION('',(1.,0.,0.));
#1043=DIRECTION('',(-1.,-9.91270557701033E-17,-2.89120579329468E-16));
#1044=DIRECTION('',(-2.89120579329468E-16,0.,1.));
#1045=DIRECTION('',(-1.,-9.91270557701033E-17,-2.89120579329468E-16));
#1046=DIRECTION('',(-2.89120579329468E-16,0.,1.));
#1047=CARTESIAN_POINT('',(0.,0.,0.));
#1048=CARTESIAN_POINT('',(-1.38777878078145E-17,-0.007,0.01));
#1049=CARTESIAN_POINT('',(-6.83976684813713E-18,0.0198,0.01));
#1050=CARTESIAN_POINT('',(-0.035,0.0198,0.01));
#1051=CARTESIAN_POINT('',(-0.0025,0.0198,0.01));
#1052=CARTESIAN_POINT('',(-0.0025,0.019798,0.01));
#1053=CARTESIAN_POINT('',(-0.0025,0.0208,0.01));
#1054=CARTESIAN_POINT('',(-6.93889390390723E-18,0.0208,0.01));
#1055=CARTESIAN_POINT('',(-0.035,0.0208,0.01));
#1056=CARTESIAN_POINT('',(-0.035,-0.007,0.01));
#1057=CARTESIAN_POINT('',(-0.035,-0.0348,0.01));
#1058=CARTESIAN_POINT('',(-6.93889390390723E-18,-0.0348,0.01));
#1059=CARTESIAN_POINT('',(-0.0185,-0.0348,0.01));
#1060=CARTESIAN_POINT('',(-0.0185,-0.007,0.01));
#1061=CARTESIAN_POINT('',(-0.0185,-0.0338,0.01));
#1062=CARTESIAN_POINT('',(-7.13714801544743E-18,-0.0338,0.01));
#1063=CARTESIAN_POINT('',(-0.035,-0.0338,0.01));
#1064=CARTESIAN_POINT('',(-0.035,-0.007,0.01));
#1065=CARTESIAN_POINT('',(-6.83976684813713E-18,0.0198,0.01));
#1066=CARTESIAN_POINT('',(-0.0025,0.0198,0.0055));
#1067=CARTESIAN_POINT('',(-0.0025,0.0198,0.001));
#1068=CARTESIAN_POINT('',(-0.035,0.0198,0.01));
#1069=CARTESIAN_POINT('',(-0.035,0.0198,0.001));
#1070=CARTESIAN_POINT('',(-6.83976684813713E-18,0.0198,0.001));
#1071=CARTESIAN_POINT('',(-6.93889390390723E-18,0.0208,0.01));
#1072=CARTESIAN_POINT('',(2.18079522694227E-19,0.0208,0.001));
#1073=CARTESIAN_POINT('',(0.035,0.0208,0.00100000000000003));
#1074=CARTESIAN_POINT('',(0.0025,0.0208,0.001));
#1075=CARTESIAN_POINT('',(0.0025,0.0208,0.01));
#1076=CARTESIAN_POINT('',(0.0025,0.0208,0.01));
#1077=CARTESIAN_POINT('',(-6.93889390390723E-18,0.0208,0.01));
#1078=CARTESIAN_POINT('',(0.035,0.0208,0.01));
#1079=CARTESIAN_POINT('',(0.035,0.0208,0.01));
#1080=CARTESIAN_POINT('',(-6.93889390390723E-18,-0.0348,0.01));
#1081=CARTESIAN_POINT('',(-0.035,-0.0348,0.01));
#1082=CARTESIAN_POINT('',(-0.035,-0.0348,0.00100000000000003));
#1083=CARTESIAN_POINT('',(-2.18079522694227E-19,-0.0348,0.001));
#1084=CARTESIAN_POINT('',(0.035,-0.0348,0.00100000000000003));
#1085=CARTESIAN_POINT('',(0.035,-0.0348,0.01));
#1086=CARTESIAN_POINT('',(0.035,-0.0348,0.01));
#1087=CARTESIAN_POINT('',(-6.93889390390723E-18,-0.0348,0.01));
#1088=CARTESIAN_POINT('',(0.0075,-0.0348,0.01));
#1089=CARTESIAN_POINT('',(0.0075,-0.0348,0.011));
#1090=CARTESIAN_POINT('',(0.0075,-0.0348,0.011));
#1091=CARTESIAN_POINT('',(-0.0055,-0.0348,0.011));
#1092=CARTESIAN_POINT('',(-0.0185,-0.0348,0.011));
#1093=CARTESIAN_POINT('',(-0.0185,-0.0348,0.011));
#1094=CARTESIAN_POINT('',(-1.38777878078145E-17,-0.0075,0.011));
#1095=CARTESIAN_POINT('',(0.006498,-0.0293,0.011));
#1096=CARTESIAN_POINT('',(0.0065,-0.0293,0.011));
#1097=CARTESIAN_POINT('',(0.0075,-0.0293,0.011));
#1098=CARTESIAN_POINT('',(0.0065,-0.0273,0.011));
#1099=CARTESIAN_POINT('',(0.0065,-0.0338,0.011));
#1100=CARTESIAN_POINT('',(-8.66370467430702E-18,-0.0338,0.011));
#1101=CARTESIAN_POINT('',(-0.0175,-0.0338,0.011));
#1102=CARTESIAN_POINT('',(-0.0175,-0.0273,0.011));
#1103=CARTESIAN_POINT('',(-0.0175,-0.0208,0.011));
#1104=CARTESIAN_POINT('',(-0.0055,-0.0208,0.011));
#1105=CARTESIAN_POINT('',(0.0065,-0.0208,0.011));
#1106=CARTESIAN_POINT('',(0.0065,-0.0273,0.011));
#1107=CARTESIAN_POINT('',(0.0065,-0.0253,0.011));
#1108=CARTESIAN_POINT('',(0.006498,-0.0253,0.011));
#1109=CARTESIAN_POINT('',(0.0075,-0.0253,0.011));
#1110=CARTESIAN_POINT('',(0.0075,-0.0273,0.011));
#1111=CARTESIAN_POINT('',(0.0075,-0.0198,0.011));
#1112=CARTESIAN_POINT('',(-0.0055,-0.0198,0.011));
#1113=CARTESIAN_POINT('',(-0.0185,-0.0198,0.011));
#1114=CARTESIAN_POINT('',(-0.0185,-0.0273,0.011));
#1115=CARTESIAN_POINT('',(0.0075,-0.0273,0.011));
#1116=CARTESIAN_POINT('',(-7.13714801544743E-18,-0.0338,0.01));
#1117=CARTESIAN_POINT('',(0.0075,-0.0338,0.01));
#1118=CARTESIAN_POINT('',(0.0075,-0.0338,0.01));
#1119=CARTESIAN_POINT('',(0.0075,-0.0338,0.001));
#1120=CARTESIAN_POINT('',(-7.13714801544743E-18,-0.0338,0.01));
#1121=CARTESIAN_POINT('',(0.035,-0.0338,0.01));
#1122=CARTESIAN_POINT('',(0.035,-0.0338,0.01));
#1123=CARTESIAN_POINT('',(0.035,-0.0338,0.001));
#1124=CARTESIAN_POINT('',(-7.13714801544743E-18,-0.0338,0.001));
#1125=CARTESIAN_POINT('',(-1.38777878078145E-17,-0.007,0.001));
#1126=CARTESIAN_POINT('',(-7.13714801544743E-18,-0.0338,0.001));
#1127=CARTESIAN_POINT('',(-0.0185,-0.0338,0.001));
#1128=CARTESIAN_POINT('',(-0.035,-0.0338,0.001));
#1129=CARTESIAN_POINT('',(-0.0185,-0.0273,0.001));
#1130=CARTESIAN_POINT('',(-0.0185,-0.0198,0.001));
#1131=CARTESIAN_POINT('',(-0.0055,-0.0198,0.001));
#1132=CARTESIAN_POINT('',(0.0075,-0.0198,0.001));
#1133=CARTESIAN_POINT('',(0.0075,-0.0273,0.001));
#1134=CARTESIAN_POINT('',(0.035,-0.007,0.001));
#1135=CARTESIAN_POINT('',(0.035,0.0198,0.001));
#1136=CARTESIAN_POINT('',(-6.83976684813713E-18,0.0198,0.001));
#1137=CARTESIAN_POINT('',(0.0025,0.0198,0.001));
#1138=CARTESIAN_POINT('',(0.0025,0.019798,0.001));
#1139=CARTESIAN_POINT('',(0.035,-0.007,0.001));
#1140=CARTESIAN_POINT('',(-0.035,-0.007,0.001));
#1141=CARTESIAN_POINT('',(-0.035,0.0208,0.00100000000000003));
#1142=CARTESIAN_POINT('',(2.18079522694227E-19,0.0208,0.001));
#1143=CARTESIAN_POINT('',(-0.0025,0.0208,0.001));
#1144=CARTESIAN_POINT('',(-0.0025,0.019798,0.001));
#1145=CARTESIAN_POINT('',(-0.035,-0.007,0.001));
#1146=CARTESIAN_POINT('',(1.98254111540207E-20,-0.0372,0.001));
#1147=CARTESIAN_POINT('',(0.035,-0.0372,0.00100000000000001));
#1148=CARTESIAN_POINT('',(-0.035,-0.0372,0.00100000000000001));
#1149=CARTESIAN_POINT('',(0.035,-0.007,0.001));
#1150=CARTESIAN_POINT('',(0.035,0.0232,0.00100000000000001));
#1151=CARTESIAN_POINT('',(-1.98254111540207E-20,0.0232,0.001));
#1152=CARTESIAN_POINT('',(-0.035,0.0232,0.00100000000000001));
#1153=CARTESIAN_POINT('',(-0.035,-0.007,0.001));
#1154=CARTESIAN_POINT('',(-1.38777878078145E-17,-0.007,0.01));
#1155=CARTESIAN_POINT('',(0.0025,0.019798,0.01));
#1156=CARTESIAN_POINT('',(0.0025,0.0198,0.01));
#1157=CARTESIAN_POINT('',(-6.83976684813713E-18,0.0198,0.01));
#1158=CARTESIAN_POINT('',(0.035,0.0198,0.01));
#1159=CARTESIAN_POINT('',(0.035,-0.007,0.01));
#1160=CARTESIAN_POINT('',(0.0075,-0.007,0.01));
#1161=CARTESIAN_POINT('',(0.035,-0.007,0.01));
#1162=CARTESIAN_POINT('',(0.035,-0.007,0.01));
#1163=CARTESIAN_POINT('',(-6.93889390390723E-18,0.0208,0.01));
#1164=CARTESIAN_POINT('',(-0.0025,0.0208,0.01));
#1165=CARTESIAN_POINT('',(-0.035,0.0208,0.01));
#1166=CARTESIAN_POINT('',(-0.035,-0.007,0.01));
#1167=CARTESIAN_POINT('',(-7.13714801544743E-18,-0.0338,0.01));
#1168=CARTESIAN_POINT('',(-0.0185,-0.0338,0.01));
#1169=CARTESIAN_POINT('',(-0.035,-0.0338,0.01));
#1170=CARTESIAN_POINT('',(0.035,-0.007,0.01));
#1171=CARTESIAN_POINT('',(0.035,0.0198,0.01));
#1172=CARTESIAN_POINT('',(-6.83976684813713E-18,0.0198,0.01));
#1173=CARTESIAN_POINT('',(0.0025,0.0198,0.0055));
#1174=CARTESIAN_POINT('',(-0.035,-0.007,0.01));
#1175=CARTESIAN_POINT('',(-0.0185,-0.0273,0.011));
#1176=CARTESIAN_POINT('',(-0.0185,-0.0198,0.011));
#1177=CARTESIAN_POINT('',(0.0075,-0.0273,0.011));
#1178=CARTESIAN_POINT('',(0.0075,-0.0253,0.007));
#1179=CARTESIAN_POINT('',(0.0075,-0.0253,0.003));
#1180=CARTESIAN_POINT('',(0.0075,-0.0273,0.003));
#1181=CARTESIAN_POINT('',(0.0075,-0.0293,0.003));
#1182=CARTESIAN_POINT('',(0.0075,-0.0293,0.007));
#1183=CARTESIAN_POINT('',(0.0075,-0.0198,0.011));
#1184=CARTESIAN_POINT('',(-0.0055,-0.0198,0.011));
#1185=CARTESIAN_POINT('',(-1.38777878078145E-17,-0.007,0.001));
#1186=CARTESIAN_POINT('',(-1.20363121179314E-17,-0.0208,0.001));
#1187=CARTESIAN_POINT('',(0.0065,-0.0208,0.001));
#1188=CARTESIAN_POINT('',(-0.0175,-0.0208,0.001));
#1189=CARTESIAN_POINT('',(-0.0175,-0.0273,0.001));
#1190=CARTESIAN_POINT('',(-0.0175,-0.0338,0.001));
#1191=CARTESIAN_POINT('',(-7.13714801544743E-18,-0.0338,0.001));
#1192=CARTESIAN_POINT('',(0.0065,-0.0338,0.001));
#1193=CARTESIAN_POINT('',(0.0065,-0.007,0.001));
#1194=CARTESIAN_POINT('',(-7.13714801544743E-18,-0.0338,0.01));
#1195=CARTESIAN_POINT('',(-0.0175,-0.0338,0.01));
#1196=CARTESIAN_POINT('',(0.0065,-0.0338,0.01));
#1197=CARTESIAN_POINT('',(-0.0175,-0.0273,0.011));
#1198=CARTESIAN_POINT('',(-0.0175,-0.0208,0.011));
#1199=CARTESIAN_POINT('',(0.0065,-0.0273,0.011));
#1200=CARTESIAN_POINT('',(0.0065,-0.0253,0.007));
#1201=CARTESIAN_POINT('',(0.0065,-0.0253,0.003));
#1202=CARTESIAN_POINT('',(0.0065,-0.0208,0.011));
#1203=CARTESIAN_POINT('',(0.0065,-0.0293,0.007));
#1204=CARTESIAN_POINT('',(0.0065,-0.0293,0.003));
#1205=CARTESIAN_POINT('',(0.0065,-0.0273,0.003));
#1206=CARTESIAN_POINT('',(-0.0055,-0.0208,0.011));
#1207=CARTESIAN_POINT('',(0.006498,-0.0253,0.007));
#1208=CARTESIAN_POINT('',(0.006498,-0.0253,0.003));
#1209=CARTESIAN_POINT('',(0.006498,-0.0293,0.007));
#1210=CARTESIAN_POINT('',(0.006498,-0.0293,0.003));
#1211=CARTESIAN_POINT('',(0.006498,-0.0273,0.003));
#1212=CARTESIAN_POINT('',(-1.98254111540207E-20,0.0232,0.043));
#1213=CARTESIAN_POINT('',(-0.035,0.0232,0.043));
#1214=CARTESIAN_POINT('',(-0.035,0.0232,0.005));
#1215=CARTESIAN_POINT('',(0.035,0.0232,0.043));
#1216=CARTESIAN_POINT('',(0.035,0.0232,0.005));
#1217=CARTESIAN_POINT('',(-1.19138330153693E-17,0.0232,0.005));
#1218=CARTESIAN_POINT('',(1.98254111540207E-20,-0.0372,0.043));
#1219=CARTESIAN_POINT('',(-5.92655884685505E-18,-0.0372,0.005));
#1220=CARTESIAN_POINT('',(-0.035,-0.0372,0.005));
#1221=CARTESIAN_POINT('',(0.035,-0.0372,0.005));
#1222=CARTESIAN_POINT('',(0.035,-0.0372,0.043));
#1223=CARTESIAN_POINT('',(-0.035,-0.0372,0.043));
#1224=CARTESIAN_POINT('',(0.035,-0.007,0.043));
#1225=CARTESIAN_POINT('',(0.035,-0.007,0.005));
#1226=CARTESIAN_POINT('',(-0.035,-0.007,0.043));
#1227=CARTESIAN_POINT('',(-0.035,-0.007,0.005));
#1228=CARTESIAN_POINT('',(-1.38777878078145E-17,-0.007,0.));
#1229=CARTESIAN_POINT('',(0.035,-0.007,0.));
#1230=CARTESIAN_POINT('',(0.035,-0.0448,0.));
#1231=CARTESIAN_POINT('',(0.035,0.0308,0.));
#1232=CARTESIAN_POINT('',(-4.95635278850516E-18,-0.0448,0.));
#1233=CARTESIAN_POINT('',(-0.035,-0.0448,0.));
#1234=CARTESIAN_POINT('',(-0.035,-0.007,0.));
#1235=CARTESIAN_POINT('',(-0.035,0.0308,0.));
#1236=CARTESIAN_POINT('',(-0.035,0.0808,-2.44367059208429E-49));
#1237=CARTESIAN_POINT('',(-0.035,0.0808,-2.44367059208429E-49));
#1238=CARTESIAN_POINT('',(0.035,0.0808,-2.44367059208429E-49));
#1239=CARTESIAN_POINT('',(0.035,0.0808,-2.44367059208429E-49));
#1240=CARTESIAN_POINT('',(0.035,0.0808,-2.44367059208429E-49));
#1241=CARTESIAN_POINT('',(-6.1644637807033E-18,-0.0398,0.));
#1242=CARTESIAN_POINT('',(-0.035,-0.0398,0.));
#1243=CARTESIAN_POINT('',(-0.035,-0.0398,0.005));
#1244=CARTESIAN_POINT('',(0.035,-0.0398,0.));
#1245=CARTESIAN_POINT('',(0.035,-0.0398,0.005));
#1246=CARTESIAN_POINT('',(-6.1644637807033E-18,-0.0398,0.005));
#1247=CARTESIAN_POINT('',(-0.035,-0.007,0.));
#1248=CARTESIAN_POINT('',(-0.035,-0.007,0.005));
#1249=CARTESIAN_POINT('',(-0.03,0.0254166623821762,0.005));
#1250=CARTESIAN_POINT('',(-0.035,0.0308,4.33680868994202E-19));
#1251=CARTESIAN_POINT('',(-0.035,0.0308,0.000829128015721837));
#1252=CARTESIAN_POINT('',(-0.0345669851034098,0.0303695048378617,0.00242244617077919));
#1253=CARTESIAN_POINT('',(-0.0331933906927325,0.0289598770784757,0.00399973348155307));
#1254=CARTESIAN_POINT('',(-0.0316155349834477,0.0272642315546038,0.00483086544379163));
#1255=CARTESIAN_POINT('',(-0.0305305581453526,0.0260352257039749,0.005));
#1256=CARTESIAN_POINT('',(-0.03,0.0254166623821762,0.005));
#1257=CARTESIAN_POINT('',(-0.03,-0.0448,0.));
#1258=CARTESIAN_POINT('',(-0.03,-0.0448,0.005));
#1259=CARTESIAN_POINT('',(-0.03,0.0758,0.005));
#1260=CARTESIAN_POINT('',(-0.03,0.0758,0.));
#1261=CARTESIAN_POINT('',(-1.71279161488767E-17,0.0758,0.));
#1262=CARTESIAN_POINT('',(-1.71279161488767E-17,0.0758,0.005));
#1263=CARTESIAN_POINT('',(0.03,0.0758,0.005));
#1264=CARTESIAN_POINT('',(0.03,0.0758,0.));
#1265=CARTESIAN_POINT('',(0.03,0.0808,0.));
#1266=CARTESIAN_POINT('',(0.03,0.0808,0.005));
#1267=CARTESIAN_POINT('',(0.03,0.0254166623821762,0.005));
#1268=CARTESIAN_POINT('',(0.035,0.0308,-4.33680868994202E-19));
#1269=CARTESIAN_POINT('',(0.035,0.0308,0.000829128015721836));
#1270=CARTESIAN_POINT('',(0.0345669851034099,0.0303695048378616,0.00242244617077919));
#1271=CARTESIAN_POINT('',(0.0331933906927321,0.028959877078476,0.00399973348155307));
#1272=CARTESIAN_POINT('',(0.0316155349834491,0.0272642315546026,0.00483086544379163));
#1273=CARTESIAN_POINT('',(0.0305305581453496,0.0260352257039774,0.005));
#1274=CARTESIAN_POINT('',(0.03,0.0254166623821762,0.005));
#1275=CARTESIAN_POINT('',(0.035,-0.007,0.));
#1276=CARTESIAN_POINT('',(0.035,-0.007,0.005));
#1277=CARTESIAN_POINT('',(-5.17319322300226E-18,-0.0448,0.005));
#1278=CARTESIAN_POINT('',(-0.0025,0.019798,0.0055));
#1279=CARTESIAN_POINT('',(0.0025,0.019798,0.0055));
#1280=MECHANICAL_DESIGN_GEOMETRIC_PRESENTATION_REPRESENTATION('',(#767),
#1281);
#1281=(
GEOMETRIC_REPRESENTATION_CONTEXT(3)
GLOBAL_UNCERTAINTY_ASSIGNED_CONTEXT((#1282))
GLOBAL_UNIT_ASSIGNED_CONTEXT((#1285,#1284,#1283))
REPRESENTATION_CONTEXT('base','TOP_LEVEL_ASSEMBLY_PART')
);
#1282=UNCERTAINTY_MEASURE_WITH_UNIT(LENGTH_MEASURE(5.E-6),#1285,
'DISTANCE_ACCURACY_VALUE','Maximum Tolerance applied to model');
#1283=(
NAMED_UNIT(*)
SI_UNIT($,.STERADIAN.)
SOLID_ANGLE_UNIT()
);
#1284=(
NAMED_UNIT(*)
PLANE_ANGLE_UNIT()
SI_UNIT($,.RADIAN.)
);
#1285=(
LENGTH_UNIT()
NAMED_UNIT(*)
SI_UNIT($,.METRE.)
);
#1286=PRODUCT_DEFINITION_SHAPE('','',#1287);
#1287=PRODUCT_DEFINITION('','',#1289,#1288);
#1288=PRODUCT_DEFINITION_CONTEXT('',#1295,'design');
#1289=PRODUCT_DEFINITION_FORMATION_WITH_SPECIFIED_SOURCE('','',#1291,
 .NOT_KNOWN.);
#1290=PRODUCT_RELATED_PRODUCT_CATEGORY('','',(#1291));
#1291=PRODUCT('base','base','base',(#1293));
#1292=PRODUCT_CATEGORY('','');
#1293=PRODUCT_CONTEXT('',#1295,'mechanical');
#1294=APPLICATION_PROTOCOL_DEFINITION('international standard',
'ap242_managed_model_based_3d_engineering',2011,#1295);
#1295=APPLICATION_CONTEXT('managed model based 3d engineering');
ENDSEC;
END-ISO-10303-21;
